{
  "mascotas": [
    {
      "id": 113298,
      "titulo": "FUNCIONA?",
      "descripcion": "SALICYLIC ACID",
      "animal": "Gato",
      "precio": "92.00",
      "raza": "Paraguayan",
      "nacimiento": "2022-08-17",
      "vacuna": "si"
    },
    {
      "id": 144825,
      "titulo": "GEM",
      "descripcion": "Simethicone",
      "animal": "Gato",
      "precio": "95.00",
      "raza": "Nicaraguan",
      "nacimiento": "2021-12-10",
      "vacuna": "no"
    },
    {
      "id": 397289,
      "titulo": "com.dailymotion.Job",
      "descripcion": "Quetiapine Fumarate",
      "animal": "Perro",
      "precio": 27,
      "raza": "Houma",
      "nacimiento": "2022-11-24",
      "vacuna": "si"
    },
    {
      "id": 963255,
      "titulo": "com.163.Otcom",
      "descripcion": "isosorbide mononitrate",
      "animal": "Gato",
      "precio": 5,
      "raza": "Puget Sound Salish",
      "nacimiento": "2022-05-23",
      "vacuna": "no"
    },
    {
      "id": 494965,
      "titulo": "OXIGENO",
      "descripcion": "Oxygen",
      "animal": "Perro",
      "precio": "48.00",
      "raza": "Cherokee",
      "nacimiento": "2021-12-02",
      "vacuna": "si"
    },
    {
      "id": 547272,
      "titulo": "com.vistaprint.Alphazap",
      "descripcion": "Titanium Dioxide and Zinc Oxide",
      "animal": "Perro",
      "precio": 81,
      "raza": "Indonesian",
      "nacimiento": "2022-06-19",
      "vacuna": "no"
    },
    {
      "id": 287079,
      "titulo": "com.blog.Daltfresh",
      "descripcion": "CALENDULA OFFICINALIS FLOWERING TOP",
      "animal": "Perro",
      "precio": 37,
      "raza": "Iroquois",
      "nacimiento": "2022-11-25",
      "vacuna": "no"
    },
    {
      "id": 341965,
      "titulo": "com.netvibes.Stringtough",
      "descripcion": "Acetaminophen and Phenylephrine HCl",
      "animal": "Perro",
      "precio": 74,
      "raza": "Bolivian",
      "nacimiento": "2022-07-18",
      "vacuna": "no"
    },
    {
      "id": 865017,
      "titulo": "cn.com.people.Flexidy",
      "descripcion": "Loratadine",
      "animal": "Gato",
      "precio": 75,
      "raza": "Yakama",
      "nacimiento": "2022-08-12",
      "vacuna": "no"
    },
    {
      "id": 741349,
      "titulo": "com.samsung.Mat Lam Tam",
      "descripcion": "Ethyl Alcohol",
      "animal": "Gato",
      "precio": 85,
      "raza": "Peruvian",
      "nacimiento": "2022-05-30",
      "vacuna": "no"
    },
    {
      "id": 368290,
      "titulo": "com.businessweek.Matsoft",
      "descripcion": "Oxygen",
      "animal": "Perro",
      "precio": 48,
      "raza": "Cherokee",
      "nacimiento": "2021-12-02",
      "vacuna": "si"
    },
    {
      "id": 800471,
      "titulo": "com.technorati.Sonair",
      "descripcion": "PREGABALIN",
      "animal": "Gato",
      "precio": 12,
      "raza": "Eskimo",
      "nacimiento": "2022-08-13",
      "vacuna": "no"
    },
    {
      "id": 32816,
      "titulo": "com.hugedomains.Home Ing",
      "descripcion": "OCTINOXATE, OCTISALATE, ZINC OXIDE, TITANIUM DIOXIDE",
      "animal": "Gato",
      "precio": 31,
      "raza": "Indonesian",
      "nacimiento": "2022-08-21",
      "vacuna": "si"
    },
    {
      "id": 165155,
      "titulo": "uk.co.thetimes.Sonair",
      "descripcion": "Phenylephrine Hydrochloride",
      "animal": "Gato",
      "precio": 74,
      "raza": "Latin American Indian",
      "nacimiento": "2022-07-12",
      "vacuna": "no"
    },
    {
      "id": 195170,
      "titulo": "com.intel.Solarbreeze",
      "descripcion": "Gabapentin",
      "animal": "Gato",
      "precio": 93,
      "raza": "Creek",
      "nacimiento": "2022-07-31",
      "vacuna": "no"
    },
    {
      "id": 179935,
      "titulo": "pl.google.Domainer",
      "descripcion": "levetiracetam",
      "animal": "Perro",
      "precio": 33,
      "raza": "Micronesian",
      "nacimiento": "2021-12-12",
      "vacuna": "no"
    },
    {
      "id": 186936,
      "titulo": "com.shinystat.Lotstring",
      "descripcion": "Triclosan",
      "animal": "Perro",
      "precio": 49,
      "raza": "Hmong",
      "nacimiento": "2022-02-04",
      "vacuna": "si"
    },
    {
      "id": 133064,
      "titulo": "com.over-blog.Holdlamis",
      "descripcion": "DEXTROMETHORPHAN HYDROBROMIDE, GUAIFENESIN, PHENYLEPHRINE HYDROCHLORIDE",
      "animal": "Gato",
      "precio": 45,
      "raza": "Blackfeet",
      "nacimiento": "2022-06-30",
      "vacuna": "no"
    },
    {
      "id": 122134,
      "titulo": "org.un.Ventosanzap",
      "descripcion": "Gemcitabine Hydrochloride",
      "animal": "Perro",
      "precio": 39,
      "raza": "Argentinian",
      "nacimiento": "2022-03-21",
      "vacuna": "si"
    },
    {
      "id": 613655,
      "titulo": "com.merriam-webster.Alphazap",
      "descripcion": "Lymph System Booster",
      "animal": "Gato",
      "precio": 53,
      "raza": "Navajo",
      "nacimiento": "2022-01-20",
      "vacuna": "si"
    }
  ]
}